Getting started with slide • slide
…
There are multiple ways to solve this problem, and I felt that hop_index() provided a pretty nice solution! The general idea is as follows:

The result should be a tibble with a date column containing every day between now and the last expiration, and another column for the count of active customers. This date column represents our .starts, and the .stops is always the last expiration date. So we’ll construct the date column first, and then pass that on to hop_index() to compute our result, counting all of the active customer ids on any particular day by just taking the length() of the current window.

last_expiration <- max(customers$date)

# We don't need a `.stops` column because it is always 
# `last_expiration` and `hop_index_int()` will recycle it for us
result <- tibble(
  current_date = seq(today, last_expiration, by = 1)
)

result
#> # A tibble: 554 x 1
#>    current_date
#>    <date>      
#>  1 2019-09-27  
#>  2 2019-09-28  
#>  3 2019-09-29  
#>  4 2019-09-30  
#>  5 2019-10-01  
#>  6 2019-10-02  
#>  7 2019-10-03  
#>  8 2019-10-04  
#>  9 2019-10-05  
#> 10 2019-10-06  
#> # … with 544 more rows

result <- result %>%
  mutate(
    active = hop_index_int(
      .x = customers$id, 
      .i = customers$date,
      .starts = current_date,
      .stops = last_expiration,
      .f = length
    )
  )

result
#> # A tibble: 554 x 2
#>    current_date active
#>    <date>        <int>
#>  1 2019-09-27        3
#>  2 2019-09-28        3
#>  3 2019-09-29        3
#>  4 2019-09-30        3
#>  5 2019-10-01        3
#>  6 2019-10-02        3
#>  7 2019-10-03        3
#>  8 2019-10-04        3
#>  9 2019-10-05        3
#> 10 2019-10-06        3
#> # … with 544 more rows
…
